…
To choose rows based on specific criteria, we can use the `filter()` function.
The argument after the dataframe is the condition we want our final
dataframe to adhere to (e.g. village name is Chirodzo): 


~~~
# filters observations where village name is "Chirodzo" 
filter(interviews, village == "Chirodzo")
~~~
{: .language-r}



~~~
# A tibble: 39 × 6
   key_ID village  interview_date      no_membrs respondent_wall_type no_meals
    <dbl> <chr>    <dttm>                  <dbl> <chr>                   <dbl>
 1      8 Chirodzo 2016-11-16 00:00:00        12 burntbricks                 2
 2      9 Chirodzo 2016-11-16 00:00:00         8 burntbricks                 3
 3     10 Chirodzo 2016-12-16 00:00:00        12 burntbricks                 3
 4     34 Chirodzo 2016-11-17 00:00:00         8 burntbricks                 2
 5     35 Chirodzo 2016-11-17 00:00:00         5 muddaub                     3
 6     36 Chirodzo 2016-11-17 00:00:00         6 sunbricks                   3
 7     37 Chirodzo 2016-11-17 00:00:00         3 burntbricks                 3
 8     43 Chirodzo 2016-11-17 00:00:00         7 muddaub                     2
 9     44 Chirodzo 2016-11-17 00:00:00         2 muddaub                     2
10     45 Chirodzo 2016-11-17 00:00:00         9 muddaub                     3
# … with 29 more rows
# ℹ Use `print(n = ...)` to see more rows
…
In an "or" statement, observations must meet *at least one* of the specified conditions. 
To form "or" statements we use the logical operator for "or," which is the vertical bar (|): 


~~~
# filters observations with "|" logical operator
# output dataframe satisfies AT LEAST ONE of the specified conditions
filter(interviews, village == "Chirodzo" | village == "Ruaca")
~~~
{: .language-r}



~~~
# A tibble: 88 × 6
   key_ID village  interview_date      no_membrs respondent_wall_type no_meals
    <dbl> <chr>    <dttm>                  <dbl> <chr>                   <dbl>
 1      8 Chirodzo 2016-11-16 00:00:00        12 burntbricks                 2
 2      9 Chirodzo 2016-11-16 00:00:00         8 burntbricks                 3
 3     10 Chirodzo 2016-12-16 00:00:00        12 burntbricks                 3
 4     23 Ruaca    2016-11-21 00:00:00        10 burntbricks                 3
 5     24 Ruaca    2016-11-21 00:00:00         6 burntbricks                 2
 6     25 Ruaca    2016-11-21 00:00:00        11 burntbricks                 2
 7     26 Ruaca    2016-11-21 00:00:00         3 burntbricks                 2
 8     27 Ruaca    2016-11-21 00:00:00         7 burntbricks                 3
 9     28 Ruaca    2016-11-21 00:00:00         2 muddaub                     3
10     29 Ruaca    2016-11-21 00:00:00         7 burntbricks                 3
# … with 78 more rows
# ℹ Use `print(n = ...)` to see more rows
…
~~~
interviews %>%
    filter(village == "Chirodzo") %>%
    select(village:respondent_wall_type)
~~~
{: .language-r}



~~~
# A tibble: 39 × 4
   village  interview_date      no_membrs respondent_wall_type
   <chr>    <dttm>                  <dbl> <chr>               
 1 Chirodzo 2016-11-16 00:00:00        12 burntbricks         
 2 Chirodzo 2016-11-16 00:00:00         8 burntbricks         
 3 Chirodzo 2016-12-16 00:00:00        12 burntbricks         
 4 Chirodzo 2016-11-17 00:00:00         8 burntbricks         
 5 Chirodzo 2016-11-17 00:00:00         5 muddaub             
 6 Chirodzo 2016-11-17 00:00:00         6 sunbricks           
 7 Chirodzo 2016-11-17 00:00:00         3 burntbricks         
 8 Chirodzo 2016-11-17 00:00:00         7 muddaub             
 9 Chirodzo 2016-11-17 00:00:00         2 muddaub             
10 Chirodzo 2016-11-17 00:00:00         9 muddaub             
# … with 29 more rows
# ℹ Use `print(n = ...)` to see more rows
…
~~~
interviews_ch <- interviews %>%
    filter(village == "Chirodzo") %>%
    select(village:respondent_wall_type)

interviews_ch
~~~
{: .language-r}



~~~
# A tibble: 39 × 4
   village  interview_date      no_membrs respondent_wall_type
   <chr>    <dttm>                  <dbl> <chr>               
 1 Chirodzo 2016-11-16 00:00:00        12 burntbricks         
 2 Chirodzo 2016-11-16 00:00:00         8 burntbricks         
 3 Chirodzo 2016-12-16 00:00:00        12 burntbricks         
 4 Chirodzo 2016-11-17 00:00:00         8 burntbricks         
 5 Chirodzo 2016-11-17 00:00:00         5 muddaub             
 6 Chirodzo 2016-11-17 00:00:00         6 sunbricks           
 7 Chirodzo 2016-11-17 00:00:00         3 burntbricks         
 8 Chirodzo 2016-11-17 00:00:00         7 muddaub             
 9 Chirodzo 2016-11-17 00:00:00         2 muddaub             
10 Chirodzo 2016-11-17 00:00:00         9 muddaub             
# … with 29 more rows
# ℹ Use `print(n = ...)` to see more rows
…
We might be interested in the number of meals served in a given household
(i.e. number of people times the number of meals served):


~~~
interviews %>%
    mutate(people_per_room = no_membrs * no_meals)
~~~
{: .language-r}



~~~
# A tibble: 131 × 7
   key_ID village  interview_date      no_membrs respondent_wa…¹ no_me…² peopl…³
    <dbl> <chr>    <dttm>                  <dbl> <chr>             <dbl>   <dbl>
 1      1 God      2016-11-17 00:00:00         3 muddaub               2       6
 2      1 God      2016-11-17 00:00:00         7 muddaub               2      14
 3      3 God      2016-11-17 00:00:00        10 burntbricks           2      20
 4      4 God      2016-11-17 00:00:00         7 burntbricks           2      14
 5      5 God      2016-11-17 00:00:00         7 burntbricks           2      14
 6      6 God      2016-11-17 00:00:00         3 muddaub               2       6
 7      7 God      2016-11-17 00:00:00         6 muddaub               3      18
 8      8 Chirodzo 2016-11-16 00:00:00        12 burntbricks           2      24
 9      9 Chirodzo 2016-11-16 00:00:00         8 burntbricks           3      24
10     10 Chirodzo 2016-12-16 00:00:00        12 burntbricks           3      36
# … with 121 more rows, and abbreviated variable names ¹​respondent_wall_type,
#   ²​no_meals, ³​people_per_room
# ℹ Use `print(n = ...)` to see more rows
…
